<?xml version="1.0" encoding="UTF-8" standalone="no"?>
<svg
   xmlns:dc="http://purl.org/dc/elements/1.1/"
   xmlns:cc="http://creativecommons.org/ns#"
   xmlns:rdf="http://www.w3.org/1999/02/22-rdf-syntax-ns#"
   xmlns:svg="http://www.w3.org/2000/svg"
   xmlns="http://www.w3.org/2000/svg"
   xmlns:sodipodi="http://sodipodi.sourceforge.net/DTD/sodipodi-0.dtd"
   xmlns:inkscape="http://www.inkscape.org/namespaces/inkscape"
   version="1"
   viewBox="0 0 30 30"
   enable-background="new 0 0 48 48"
   id="svg2"
   inkscape:version="0.91 r13725"
   sodipodi:docname="empty_trash.svg"
   width="30"
   height="30">
  <metadata
     id="metadata12">
    <rdf:RDF>
      <cc:Work
         rdf:about="">
        <dc:format>image/svg+xml</dc:format>
        <dc:type
           rdf:resource="http://purl.org/dc/dcmitype/StillImage" />
        <dc:title></dc:title>
      </cc:Work>
    </rdf:RDF>
  </metadata>
  <defs
     id="defs10" />
  <sodipodi:namedview
     pagecolor="#ffffff"
     bordercolor="#666666"
     borderopacity="1"
     objecttolerance="10"
     gridtolerance="10"
     guidetolerance="10"
     inkscape:pageopacity="0"
     inkscape:pageshadow="2"
     inkscape:window-width="640"
     inkscape:window-height="480"
     id="namedview8"
     showgrid="false"
     fit-margin-top="0"
     fit-margin-left="0"
     fit-margin-right="0"
     fit-margin-bottom="0"
     inkscape:zoom="4.9166667"
     inkscape:cx="16"
     inkscape:cy="20"
     inkscape:window-x="0"
     inkscape:window-y="24"
     inkscape:window-maximized="0"
     inkscape:current-layer="svg2" />
  <path
     d="m 19.482906,26.135593 -8.290751,0 c -1.2561744,0 -2.3239225,-0.879322 -2.5123487,-2.135496 L 5.9162228,5.4087167 l 18.8426152,0 -2.826392,18.5913803 c -0.188426,1.256174 -1.256174,2.135496 -2.44954,2.135496 z"
     id="path4"
     inkscape:connector-curvature="0"
     style="fill:#b39ddb" />
  <path
     d="m 24.130751,6.6648912 -17.5864411,0 c -0.6908959,0 -1.2561743,-0.5652786 -1.2561743,-1.2561745 l 0,0 c 0,-0.6908959 0.5652784,-1.2561743 1.2561743,-1.2561743 l 17.5864411,0 c 0.690896,0 1.256174,0.5652784 1.256174,1.2561743 l 0,0 c 0,0.6908959 -0.565278,1.2561745 -1.256174,1.2561745 z"
     id="path6"
     inkscape:connector-curvature="0"
     style="fill:#7e57c2" />
</svg>
